%YAML 1.1
%TAG !u! tag:unity3d.com,2011:
--- !u!21 &2100000
Material:
  serializedVersion: 6
  m_ObjectHideFlags: 0
  m_CorrespondingSourceObject: {fileID: 0}
  m_PrefabInstance: {fileID: 0}
  m_PrefabAsset: {fileID: 0}
  m_Name: Default_LitWaterRippleAdvanced_FM
  m_Shader: {fileID: 4800000, guid: a830f21d42362a940b69e3051a90056e, type: 3}
  m_ShaderKeywords: ETC1_EXTERNAL_ALPHA
  m_LightmapFlags: 4
  m_EnableInstancingVariants: 0
  m_DoubleSidedGI: 0
  m_CustomRenderQueue: -1
  stringTagMap: {}
  disabledShaderPasses: []
  m_SavedProperties:
    serializedVersion: 3
    m_TexEnvs:
    - _BumpMap:
        m_Texture: {fileID: 2800000, guid: c303a9b3939400a4ba697bbb398ce2ac, type: 3}
        m_Scale: {x: 1, y: 1}
        m_Offset: {x: 0, y: 0}
    - _MainTex:
        m_Texture: {fileID: 0}
        m_Scale: {x: 1, y: 1}
        m_Offset: {x: 0, y: 0}
    - _WaterLineTex:
        m_Texture: {fileID: 2800000, guid: 9a0d7220c30d40e4a9e941d0ef93bb9e, type: 3}
        m_Scale: {x: 1, y: 1}
        m_Offset: {x: 0, y: 0}
    m_Floats:
    - _BottomPos: -2
    - _BumpWaves: 0.15
    - _DEPTHFOG: 0
    - _Distortion: 0.15
    - _EdgeBlend: 4
    - _FogDensityCap: 0.8
    - _FogDepth: 3
    - _FogFalloff: 0.5
    - _Glossiness: 0.5
    - _Height: 1
    - _HeightOffset: 0
    - _MeshHeight: 3.736259
    - _Metallic: 0
    - _Opacity: 0.6
    - _PixelsPerUnit: 100
    - _WaterDepth: 1
    - _WaterHeight: 6
    - _WaterLineHeight: 1
    - _WaterWidth: 16
    - _WaveHeightScale: 0.5
    m_Colors:
    - _BaseColor: {r: 0.43106616, g: 0.60046196, b: 0.875, a: 0.829}
    - _BumpDirection: {r: 1, g: 30, b: 20, a: -20}
    - _BumpTiling: {r: 0.04, g: 0.04, b: 0.04, a: 0.08}
    - _Color: {r: 1, g: 1, b: 1, a: 1}
    - _DeepWaterColor: {r: 0.23137255, g: 0.44705883, b: 0.8, a: 1}
    - _InvFadeParemeter: {r: 4, g: 0.15, b: 0.5, a: 1}
    - _ShallowWaterColor: {r: 0.5058824, g: 0.60784316, b: 0.77254903, a: 1}
    - _WaterLineColor: {r: 1, g: 1, b: 1, a: 1}
