%YAML 1.1
%TAG !u! tag:unity3d.com,2011:
--- !u!114 &11400000
MonoBehaviour:
  m_ObjectHideFlags: 0
  m_CorrespondingSourceObject: {fileID: 0}
  m_PrefabInstance: {fileID: 0}
  m_PrefabAsset: {fileID: 0}
  m_GameObject: {fileID: 0}
  m_Enabled: 1
  m_EditorHideFlags: 0
  m_Script: {fileID: 11500000, guid: 4f3badcdfafd0c548ba02333cc5ae1d3, type: 3}
  m_Name: T3 Polar Bears
  m_EditorClassIdentifier: 
  Name: Polar Bears
  StandSprite: {fileID: 21300000, guid: 50e354f3da353dd44962ce681d1ffa27, type: 3}
  JumpSprite: {fileID: 21300000, guid: 3d8fd5eaee066924e853beb7ebee9190, type: 3}
  LogoSprite: {fileID: 21300000, guid: c6f9601458d29454cbcd376a45d88feb, type: 3}
  GlowColor: {r: 0.18431373, g: 0.82745105, b: 1, a: 0.5019608}
  IconColor: {r: 0.18431373, g: 0.82745105, b: 1, a: 0.5019608}
  ArrowColorBase: {r: 0.20392159, g: 0.65882355, b: 1, a: 1}
  ArrowColorBright: {r: 0.27058825, g: 0.86666673, b: 1, a: 0.5019608}
  PrevTeam: {fileID: 11400000, guid: 839404de81de9d0489d3ce16799a853a, type: 2}
  NextTeam: {fileID: 11400000, guid: f603786ce4e85ba4484064131077d9c1, type: 2}
